…
Since RMSE is smallest (0.30) for the smooth model, the smooth model
seems to do best.

## Cross validation using ‘modelr’

``` r
cv_df = 
  crossv_mc(nonlin_df, 100)
```

``` r
cv_df %>% pull(train) %>% .[[1]] %>% as_tibble()
```

    ## # A tibble: 79 x 3
    ##       id     x      y
    ##    <int> <dbl>  <dbl>
    ##  1     1 0.140  0.464
    ##  2     2 0.494  0.525
    ##  3     3 0.715 -0.700
    ##  4     4 0.753 -1.16 
    ##  5     5 0.791 -1.09 
    ##  6     6 0.942 -3.50 
    ##  7     7 0.725 -0.595
    ##  8     8 0.291  0.793
    ##  9     9 0.833 -1.66 
    ## 10    11 0.284  1.81 
    ## # … with 69 more rows

``` r
cv_df %>% pull(test) %>% .[[1]] %>% as_tibble()
```

    ## # A tibble: 21 x 3
    ##       id     x      y
    ##    <int> <dbl>  <dbl>
    ##  1    10 0.758 -1.05 
    ##  2    15 0.665 -0.214
    ##  3    20 0.233  0.835
    ##  4    24 0.186  0.977
    ##  5    27 0.706 -0.468
    ##  6    33 0.359  0.722
    ##  7    41 0.237  1.28 
    ##  8    43 0.916 -3.02 
    ##  9    44 0.333  0.796
    ## 10    47 0.405  0.618
    ## # … with 11 more rows
…
